Final Write-up • bis620.2023
…
Data Pre-processing and Variable Selection

For the purposes of minimizing space usage, data on states other than
California were already filtered out from the 2018 SVI dataset;
shapefile/geometry columns were also dropped.

First, we do some data pre-processing. Missing information are
encoded as -999s in the SVI, so we convert them to
NAs:

data(ca.svi)
svi <- ca.svi %>%
  mutate_if(is.numeric, ~ ifelse(.x == -999, NA, .x))
svi
#> # A tibble: 8,041 × 124m
#>    ST    STATE  ST_ABBR STCNTY COUNTY FIPS  LOCATION AREA_SQMI E_TOTPOP M_TOTPOP
#>    <chr> <chr>  <chr>   <chr>  <chr>  <chr> <chr>        <dbl>    <dbl>    <dbl>
#>  1 06    CALIF… CA      06017  El Do… 0601… Census …     0            0       12      12
#>  2 06    CALIF… CA      06019  Fresno 0601… Census …     1.01      3298      232   232
#>  3 06    CALIF… CA      06029  Kern   0602… Census …     1.50      5498      289   289
#>  4 06    CALIF… CA      06029  Kern   0602… Census …     0.980     4061      839   839
#>  5 06    CALIF… CA      06029  Kern   0602… Census …     0.756     2196      204   204
#>  6 06    CALIF… CA      06029  Kern   0602… Census …     2.61      4116      217   217
#>  7 06    CALIF… CA      06031  Kings  0603… Census …     1.98      9121      388   388
#>  8 06    CALIF… CA      06031  Kings  0603… Census …     0.790     3356      378   378
#>  9 06    CALIF… CA      06037  Los A… 0603… Census …     0.616    11235      501     501
#> 10 06    CALIF… CA      06037  Los A… 0603… Census …     0.506        0       12      12
#> # ℹ 8,031 more rows9m
#> # ℹ 114 more variables: E_HU <dbl>, M_HU <dbl>, E_HH <dbl>, M_HH <dbl>,9m
#> #   E_POV <dbl>, M_POV <dbl>, E_UNEMP <dbl>, M_UNEMP <dbl>, E_PCI <dbl>,
#> #   M_PCI <dbl>, E_NOHSDP <dbl>, M_NOHSDP <dbl>, E_AGE65 <dbl>, M_AGE65 <dbl>,
#> #   E_AGE17 <dbl>, M_AGE17 <dbl>, E_DISABL <dbl>, M_DISABL <dbl>,
#> #   E_SNGPNT <dbl>, M_SNGPNT <dbl>, E_MINRTY <dbl>, M_MINRTY <dbl>,
#> #   E_LIMENG <dbl>, M_LIMENG <dbl>, E_MUNIT <dbl>, M_MUNIT <dbl>, …9m

The SVI data are collected by census tracts, whereas the hazard risk
data are collected by counties:

data(risk)
risk
#> # A tibble: 3,108 × 7m
#>    GeoType StateFP GEOID County_name     TotalPop state   cc_fire_rating
#>    <chr>   <chr>   <chr> <chr>              <dbl> <chr>            <dbl>
#>  1 County  01      01001 Autauga County     42497 Alabama           29  
#>  2 County  01      01003 Baldwin County    171298 Alabama           35.3
#>  3 County  01      01005 Barbour County     19802 Alabama           27.4
#>  4 County  01      01007 Bibb County        17790 Alabama           28.5
#>  5 County  01      01009 Blount County      44382 Alabama           28.4
#>  6 County  01      01011 Bullock County      7893 Alabama           29.8
#>  7 County  01      01013 Butler County      15330 Alabama           30.9
#>  8 County  01      01015 Calhoun County     89556 Alabama           26.3
#>  9 County  01      01017 Chambers County    26484 Alabama           25.4
#> 10 County  01      01019 Cherokee County    21032 Alabama           26.3
#> # ℹ 3,098 more rows9m
…
E_SNGPNT
Single parent household with children under 18
estimate, 2014-2018 ACS

F_TOTAL
Sum of flags for four themes: Socioeconomic Status,
Household Composition, Minority Status/Language, and Housing
Type/Transportation

svi <- svi %>%
  select(STCNTY, E_TOTPOP, E_AGE17, E_GROUPQ, E_HH, E_HU, E_MINRTY, E_MUNIT, E_SNGPNT, F_TOTAL)
svi
#> # A tibble: 8,041 × 10m
#>    STCNTY E_TOTPOP E_AGE17 E_GROUPQ  E_HH  E_HU E_MINRTY E_MUNIT E_SNGPNT
#>    <chr>     <dbl>   <dbl>    <dbl> <dbl> <dbl>    <dbl>   <dbl>    <dbl>
#>  1 06017         0       0        0     0     0        0       0        0
#>  2 06019      3298       0     3298     0     0     2632       0        0
#>  3 06029      5498       0     5498     0     0     4568       0        0
#>  4 06029      4061       0     4061     0     0     3305       0        0
#>  5 06029      2196       0     2196     0     0     1814       0        0
#>  6 06029      4116       0     4116     0     0     2658       0        0
#>  7 06031      9121       0     9121     0     0     7232       0        0
#>  8 06031      3356       0     3356     0     0     2544       0        0
#>  9 06037     11235     407    11235     0     0     8305       0        0
#> 10 06037         0       0        0     0     0        0       0        0
#> # ℹ 8,031 more rows9m
#> # ℹ 1 more variable: F_TOTAL <int>9m
…
cty.svi <- svi %>%
  group_by(STCNTY) %>%
  summarize(
    E_TOTPOP  = sum(E_TOTPOP, na.rm=T),
    EP_AGE17  = sum(E_AGE17,  na.rm=T) / sum(E_TOTPOP, na.rm=T) * 100,
    EP_GROUPQ = sum(E_GROUPQ, na.rm=T) / sum(E_TOTPOP, na.rm=T) * 100,
    EP_MINRTY = sum(E_MINRTY, na.rm=T) / sum(E_TOTPOP, na.rm=T) * 100,
    EP_MUNIT  = sum(E_MUNIT,  na.rm=T) / sum(E_HU, na.rm=T) * 100,
    EP_SNGPNT = sum(E_SNGPNT, na.rm=T) / sum(E_HH, na.rm=T) * 100,
    F_TOTAL   = sum(F_TOTAL,  na.rm=T)
  )
cty.svi
#> # A tibble: 58 × 8m
#>    STCNTY E_TOTPOP EP_AGE17 EP_GROUPQ EP_MINRTY EP_MUNIT EP_SNGPNT F_TOTAL
#>    <chr>     <dbl>    <dbl>     <dbl>     <dbl>    <dbl>     <dbl>   <int>
#>  1 06001   1643700     21.0     1.96       68.2    21.5       7.13     539
#>  2 06003      1146     20.9     3.14       40.8    23.9       4.68       2
#>  3 06005     37829     15.4     9.73       21.3     2.97      5.79      13
#>  4 06007    227075     20.1     2.67       27.6     7.47      7.89      84
#>  5 06009     45235     17.2     1.10       18.4     1.17      6.49      16
#>  6 06011     21464     27.4     0.964      64.3     2.74     13.2        8
#>  7 06013   1133247     23.1     0.886      55.6    12.4       8.13     213
#>  8 06015     27424     21.7    11.3        37.4     3.20      8.77      20
#>  9 06017    186661     20.4     0.954      21.8     4.85      5.54      19
#> 10 06019    978130     28.6     1.71       70.2     7.23     14.4      704
#> # ℹ 48 more rows9m

Finally, we can merge the CDC/ATSDR SVI and wildfire risk data
together:

d <- risk %>%
  select(GEOID, County_name, state, cc_fire_rating) %>%
  inner_join(cty.svi, by=c("GEOID" = "STCNTY"))
d
#> # A tibble: 58 × 11m
#>    GEOID County_name  state cc_fire_rating E_TOTPOP EP_AGE17 EP_GROUPQ EP_MINRTY
#>    <chr> <chr>        <chr>          <dbl>    <dbl>    <dbl>     <dbl>     <dbl>
#>  1 06001 Alameda Cou… Cali…           31.1  1643700     21.0     1.96       68.268.2
#>  2 06003 Alpine Coun… Cali…           73       1146     20.9     3.14       40.840.8
#>  3 06005 Amador Coun… Cali…           77.1    37829     15.4     9.73       21.321.3
#>  4 06007 Butte County Cali…           70     227075     20.1     2.67       27.6.6
#>  5 06009 Calaveras C… Cali…           80.1    45235     17.2     1.10       18.418.4
#>  6 06011 Colusa Coun… Cali…           74.5    21464     27.4     0.964      64.364.3
#>  7 06013 Contra Cost… Cali…           57.9  1133247     23.1     0.886      55.655.6
#>  8 06015 Del Norte C… Cali…           43      27424     21.7    11.3        37.437.4
#>  9 06017 El Dorado C… Cali…           70.7   186661     20.4     0.954      21.821.8
#> 10 06019 Fresno Coun… Cali…           66.3   978130     28.6     1.71       70.270.2
#> # ℹ 48 more rows9m
#> # ℹ 3 more variables: EP_MUNIT <dbl>, EP_SNGPNT <dbl>, F_TOTAL <int>9m
…
